[gd_scene load_steps=2 format=2]

[ext_resource path="res://src/road/road.tscn" type="PackedScene" id=1]

[node name="Game" type="Spatial"]

[node name="Road" parent="." instance=ExtResource( 1 )]

[node name="Camera" type="Camera" parent="."]
transform = Transform( 1, 0, 0, 0, 0.91217, 0.409812, 0, -0.409812, 0.91217, 0, 2.08603, 1.54901 )
current = true

[node name="CameraDebug" type="Camera" parent="."]
transform = Transform( 1, 0, 0, 0, -4.37114e-08, 1, 0, -1, -4.37114e-08, 0.049, 9.5, -5.9 )
